…
```r
population
```

```
## # A tibble: 195 x 302
##    country `1800` `1801` `1802` `1803` `1804` `1805` `1806` `1807` `1808` `1809`
##    <chr>    <dbl>  <dbl>  <dbl>  <dbl>  <dbl>  <dbl>  <dbl>  <dbl>  <dbl>  <dbl>
##  1 Afghan~ 3.28e6 3.28e6 3.28e6 3.28e6 3.28e6 3.28e6 3.28e6 3.28e6 3.28e6 3.28e6
##  2 Albania 4.00e5 4.02e5 4.04e5 4.05e5 4.07e5 4.09e5 4.11e5 4.13e5 4.14e5 4.16e5
##  3 Algeria 2.50e6 2.51e6 2.52e6 2.53e6 2.54e6 2.55e6 2.56e6 2.56e6 2.57e6 2.58e6
##  4 Andorra 2.65e3 2.65e3 2.65e3 2.65e3 2.65e3 2.65e3 2.65e3 2.65e3 2.65e3 2.65e3
##  5 Angola  1.57e6 1.57e6 1.57e6 1.57e6 1.57e6 1.57e6 1.57e6 1.57e6 1.57e6 1.57e6
##  6 Antigu~ 3.70e4 3.70e4 3.70e4 3.70e4 3.70e4 3.70e4 3.70e4 3.70e4 3.70e4 3.70e4
##  7 Argent~ 5.34e5 5.20e5 5.06e5 4.92e5 4.79e5 4.66e5 4.53e5 4.41e5 4.29e5 4.17e5
##  8 Armenia 4.13e5 4.13e5 4.13e5 4.13e5 4.13e5 4.13e5 4.13e5 4.13e5 4.13e5 4.13e5
##  9 Austra~ 2.00e5 2.05e5 2.11e5 2.16e5 2.22e5 2.27e5 2.33e5 2.39e5 2.46e5 2.52e5
## 10 Austria 3.00e6 3.02e6 3.04e6 3.05e6 3.07e6 3.09e6 3.11e6 3.12e6 3.14e6 3.16e6
## # ... with 185 more rows, and 291 more variables: `1810` <dbl>, `1811` <dbl>,
## #   `1812` <dbl>, `1813` <dbl>, `1814` <dbl>, `1815` <dbl>, `1816` <dbl>,
## #   `1817` <dbl>, `1818` <dbl>, `1819` <dbl>, `1820` <dbl>, `1821` <dbl>,
## #   `1822` <dbl>, `1823` <dbl>, `1824` <dbl>, `1825` <dbl>, `1826` <dbl>,
## #   `1827` <dbl>, `1828` <dbl>, `1829` <dbl>, `1830` <dbl>, `1831` <dbl>,
## #   `1832` <dbl>, `1833` <dbl>, `1834` <dbl>, `1835` <dbl>, `1836` <dbl>,
## #   `1837` <dbl>, `1838` <dbl>, `1839` <dbl>, `1840` <dbl>, `1841` <dbl>,
## #   `1842` <dbl>, `1843` <dbl>, `1844` <dbl>, `1845` <dbl>, `1846` <dbl>,
## #   `1847` <dbl>, `1848` <dbl>, `1849` <dbl>, `1850` <dbl>, `1851` <dbl>,
…
```r
income
```

```
## # A tibble: 193 x 242
##    country `1800` `1801` `1802` `1803` `1804` `1805` `1806` `1807` `1808` `1809`
##    <chr>    <dbl>  <dbl>  <dbl>  <dbl>  <dbl>  <dbl>  <dbl>  <dbl>  <dbl>  <dbl>
##  1 Afghan~    603    603    603    603    603    603    603    603    603    603
##  2 Albania    667    667    667    667    667    668    668    668    668    668
##  3 Algeria    715    716    717    718    719    720    721    722    723    724
##  4 Andorra   1200   1200   1200   1200   1210   1210   1210   1210   1220   1220
##  5 Angola     618    620    623    626    628    631    634    637    640    642
##  6 Antigu~    757    757    757    757    757    757    757    758    758    758
##  7 Argent~   1640   1640   1650   1650   1660   1660   1670   1680   1680   1690
##  8 Armenia    514    514    514    514    514    514    514    514    514    514
##  9 Austra~    817    822    826    831    836    841    845    850    855    860
## 10 Austria   1850   1850   1860   1870   1880   1880   1890   1900   1910   1920
## # ... with 183 more rows, and 231 more variables: `1810` <dbl>, `1811` <dbl>,
## #   `1812` <dbl>, `1813` <dbl>, `1814` <dbl>, `1815` <dbl>, `1816` <dbl>,
## #   `1817` <dbl>, `1818` <dbl>, `1819` <dbl>, `1820` <dbl>, `1821` <dbl>,
## #   `1822` <dbl>, `1823` <dbl>, `1824` <dbl>, `1825` <dbl>, `1826` <dbl>,
## #   `1827` <dbl>, `1828` <dbl>, `1829` <dbl>, `1830` <dbl>, `1831` <dbl>,
## #   `1832` <dbl>, `1833` <dbl>, `1834` <dbl>, `1835` <dbl>, `1836` <dbl>,
## #   `1837` <dbl>, `1838` <dbl>, `1839` <dbl>, `1840` <dbl>, `1841` <dbl>,
## #   `1842` <dbl>, `1843` <dbl>, `1844` <dbl>, `1845` <dbl>, `1846` <dbl>,
## #   `1847` <dbl>, `1848` <dbl>, `1849` <dbl>, `1850` <dbl>, `1851` <dbl>,
…
```r
life_expectancy
```

```
## # A tibble: 187 x 302
##    country `1800` `1801` `1802` `1803` `1804` `1805` `1806` `1807` `1808` `1809`
##    <chr>    <dbl>  <dbl>  <dbl>  <dbl>  <dbl>  <dbl>  <dbl>  <dbl>  <dbl>  <dbl>
##  1 Afghan~   28.2   28.2   28.2   28.2   28.2   28.2   28.1   28.1   28.1   28.1
##  2 Albania   35.4   35.4   35.4   35.4   35.4   35.4   35.4   35.4   35.4   35.4
##  3 Algeria   28.8   28.8   28.8   28.8   28.8   28.8   28.8   28.8   28.8   28.8
##  4 Andorra   NA     NA     NA     NA     NA     NA     NA     NA     NA     NA  
##  5 Angola    27     27     27     27     27     27     27     27     27     27  
##  6 Antigu~   33.5   33.5   33.5   33.5   33.5   33.5   33.5   33.5   33.5   33.5
##  7 Argent~   33.2   33.2   33.2   33.2   33.2   33.2   33.2   33.2   33.2   33.2
##  8 Armenia   34     34     34     34     34     34     34     34     34     34  
##  9 Austra~   34     34     34     34     34     34     34     34     34     34  
## 10 Austria   34.4   34.4   34.4   34.4   34.4   34.4   34.4   34.4   34.4   34.4
## # ... with 177 more rows, and 291 more variables: `1810` <dbl>, `1811` <dbl>,
## #   `1812` <dbl>, `1813` <dbl>, `1814` <dbl>, `1815` <dbl>, `1816` <dbl>,
## #   `1817` <dbl>, `1818` <dbl>, `1819` <dbl>, `1820` <dbl>, `1821` <dbl>,
## #   `1822` <dbl>, `1823` <dbl>, `1824` <dbl>, `1825` <dbl>, `1826` <dbl>,
## #   `1827` <dbl>, `1828` <dbl>, `1829` <dbl>, `1830` <dbl>, `1831` <dbl>,
## #   `1832` <dbl>, `1833` <dbl>, `1834` <dbl>, `1835` <dbl>, `1836` <dbl>,
## #   `1837` <dbl>, `1838` <dbl>, `1839` <dbl>, `1840` <dbl>, `1841` <dbl>,
## #   `1842` <dbl>, `1843` <dbl>, `1844` <dbl>, `1845` <dbl>, `1846` <dbl>,
## #   `1847` <dbl>, `1848` <dbl>, `1849` <dbl>, `1850` <dbl>, `1851` <dbl>,
…
2. (1 point) How many different countries are represented in the data? Provide the total number and their names. Since each data set includes different numbers of countries, you will need to do this for each one.

```r
population_tidy %>% 
  group_by(country) %>% 
  count(country, sort = T) %>% 
  summarize(n_distinct(country),.groups = 'keep')
```

```
## # A tibble: 195 x 2
## # Groups:   country [195]
##    country             `n_distinct(country)`
##    <chr>                               <int>
##  1 Afghanistan                             1
##  2 Albania                                 1
##  3 Algeria                                 1
##  4 Andorra                                 1
##  5 Angola                                  1
##  6 Antigua and Barbuda                     1
##  7 Argentina                               1
##  8 Armenia                                 1
##  9 Australia                               1
## 10 Austria                                 1
## # ... with 185 more rows
```


```r
income_tidy %>% 
  group_by(country) %>% 
  count(country, sort = T) %>% 
  summarize(n_distinct(country),.groups = 'keep')
```

```
## # A tibble: 193 x 2
## # Groups:   country [193]
##    country             `n_distinct(country)`
##    <chr>                               <int>
##  1 Afghanistan                             1
##  2 Albania                                 1
##  3 Algeria                                 1
##  4 Andorra                                 1
##  5 Angola                                  1
##  6 Antigua and Barbuda                     1
##  7 Argentina                               1
##  8 Armenia                                 1
##  9 Australia                               1
## 10 Austria                                 1
## # ... with 183 more rows
```


```r
life_expectancy_tidy %>% 
  group_by(country) %>% 
  count(country, sort = T) %>% 
  summarize(n_distinct(country),.groups = 'keep')
```

```
## # A tibble: 187 x 2
## # Groups:   country [187]
##    country             `n_distinct(country)`
##    <chr>                               <int>
##  1 Afghanistan                             1
##  2 Albania                                 1
##  3 Algeria                                 1
##  4 Andorra                                 1
##  5 Angola                                  1
##  6 Antigua and Barbuda                     1
##  7 Argentina                               1
##  8 Armenia                                 1
##  9 Australia                               1
## 10 Austria                                 1
## # ... with 177 more rows
```
…
9. (3 points) Create three new objects that restrict each data set (life expectancy, population, income) to the years 1920-2020. Hint: I suggest doing this with the long form of your data. Once this is done, merge all three data sets using the code I provide below. You may need to adjust the code depending on how you have named your objects. I called mine `life_expectancy_100`, `population_100`, and `income_100`. For some of you, learning these `joins` will be important for your project.  

life_expectancy_100

```r
life_expectancy_100 <- life_expectancy_tidy %>% 
  filter(year>=1920, year <=2020)
life_expectancy_100
```

```
## # A tibble: 18,887 x 3
##    country      year lifeExp
##    <chr>       <dbl>   <dbl>
##  1 Afghanistan  1920    30.6
##  2 Afghanistan  1921    30.7
##  3 Afghanistan  1922    30.8
##  4 Afghanistan  1923    30.8
##  5 Afghanistan  1924    30.9
##  6 Afghanistan  1925    31  
##  7 Afghanistan  1926    31  
##  8 Afghanistan  1927    31.1
##  9 Afghanistan  1928    31.1
## 10 Afghanistan  1929    31.2
## # ... with 18,877 more rows
```

population_100

```r
population_100 <- population_tidy %>% 
  filter(year>=1920, year<=2020)
population_100
```

```
## # A tibble: 19,695 x 3
##    country      year      pop
##    <chr>       <dbl>    <dbl>
##  1 Afghanistan  1920 10600000
##  2 Afghanistan  1921 10500000
##  3 Afghanistan  1922 10300000
##  4 Afghanistan  1923  9710000
##  5 Afghanistan  1924  9200000
##  6 Afghanistan  1925  8720000
##  7 Afghanistan  1926  8260000
##  8 Afghanistan  1927  7830000
##  9 Afghanistan  1928  7420000
## 10 Afghanistan  1929  7100000
## # ... with 19,685 more rows
```

income_100

```r
income_100 <- income_tidy %>% 
  filter(year>=1920, year<=2020)
income_100
```

```
## # A tibble: 19,493 x 3
##    country      year   inc
##    <chr>       <dbl> <dbl>
##  1 Afghanistan  1920  1490
##  2 Afghanistan  1921  1520
##  3 Afghanistan  1922  1550
##  4 Afghanistan  1923  1570
##  5 Afghanistan  1924  1600
##  6 Afghanistan  1925  1630
##  7 Afghanistan  1926  1650
##  8 Afghanistan  1927  1680
##  9 Afghanistan  1928  1710
## 10 Afghanistan  1929  1740
## # ... with 19,483 more rows
```


```r
gapminder_join <- inner_join(life_expectancy_100, population_100, by= c("country", "year"))
gapminder_join <- inner_join(gapminder_join, income_100, by= c("country", "year"))
gapminder_join
```

```
## # A tibble: 18,887 x 5
##    country      year lifeExp      pop   inc
##    <chr>       <dbl>   <dbl>    <dbl> <dbl>
##  1 Afghanistan  1920    30.6 10600000  1490
##  2 Afghanistan  1921    30.7 10500000  1520
##  3 Afghanistan  1922    30.8 10300000  1550
##  4 Afghanistan  1923    30.8  9710000  1570
##  5 Afghanistan  1924    30.9  9200000  1600
##  6 Afghanistan  1925    31    8720000  1630
##  7 Afghanistan  1926    31    8260000  1650
##  8 Afghanistan  1927    31.1  7830000  1680
##  9 Afghanistan  1928    31.1  7420000  1710
## 10 Afghanistan  1929    31.2  7100000  1740
## # ... with 18,877 more rows
```
…
