…
**11. (4 points) One of the conclusions in the study is that the relative abundance of animals drops off the closer you get to a village. Let's try to reconstruct this (without the statistics). How does the relative abundance (RA) of apes, birds, elephants, monkeys, rodents, and ungulates compare between sites that are less than 5km from a village to sites that are greater than 20km from a village? The variable `Distance` measures the distance of the transect from the nearest village. Hint: try using the `across` operator.**  

```r
vertebrate_com %>%
  select(TransectID, HuntCat, Distance, starts_with("RA_")) %>% 
  group_by(Distance) %>% 
  arrange(desc(Distance))
```

```
## # A tibble: 24 x 9
## # Groups:   Distance [23]
##    TransectID HuntCat Distance RA_Apes RA_Birds RA_Elephant RA_Monkeys RA_Rodent
##         <dbl> <fct>      <dbl>   <dbl>    <dbl>       <dbl>      <dbl>     <dbl>
##  1         24 None        26.8    4.91     31.6        0          54.1      1.29
##  2          6 None        24.1    3.78     42.7        1.11       46.2      3.1 
##  3          3 None        20.8   12.9      59.3        0.56       19.8      3.66
##  4          7 None        19.8    6.17     33.8        0.43       49.5      1.26
##  5         18 None        18.8    0.51     57.4        2.3        35.1      2.09
##  6          2 None        18.3    4.49     37.4        1.33       41.8      1.06
##  7          5 None        17.5    2.48     38.6        0          43.3      1.83
##  8          2 None        17.3    0        52.2        0.86       28.5      6.04
##  9          4 None        16.0    0        52.6        1          41.3      2.52
## 10         25 Modera~     15.0    1.28     62.0        0          23.9      3.97
## # ... with 14 more rows, and 1 more variable: RA_Ungulate <dbl>
```
…
