…
2. Notice that we have some neutral superheros! Who are they?

```r
superhero_info %>% 
  filter(alignment == "neutral")
```

```
## # A tibble: 24 x 10
##    name  gender eye_color race  hair_color height publisher skin_color alignment
##    <chr> <chr>  <chr>     <chr> <chr>       <dbl> <chr>     <chr>      <chr>    
##  1 Biza~ Male   black     Biza~ Black         191 DC Comics white      neutral  
##  2 Blac~ Male   <NA>      God ~ <NA>           NA DC Comics <NA>       neutral  
##  3 Capt~ Male   brown     Human Brown          NA DC Comics <NA>       neutral  
##  4 Copy~ Female red       Muta~ White         183 Marvel C~ blue       neutral  
##  5 Dead~ Male   brown     Muta~ No Hair       188 Marvel C~ <NA>       neutral  
##  6 Deat~ Male   blue      Human White         193 DC Comics <NA>       neutral  
##  7 Etri~ Male   red       Demon No Hair       193 DC Comics yellow     neutral  
##  8 Gala~ Male   black     Cosm~ Black         876 Marvel C~ <NA>       neutral  
##  9 Glad~ Male   blue      Stro~ Blue          198 Marvel C~ purple     neutral  
## 10 Indi~ Female <NA>      Alien Purple         NA DC Comics <NA>       neutral  
## # ... with 14 more rows, and 1 more variable: weight <dbl>
```

## `superhero_info`
3. Let's say we are only interested in the variables name, alignment, and "race". How would you isolate these variables from `superhero_info`?

```r
superhero_info %>% 
  select(name, alignment, race)
```

```
## # A tibble: 734 x 3
##    name          alignment race             
##    <chr>         <chr>     <chr>            
##  1 A-Bomb        good      Human            
##  2 Abe Sapien    good      Icthyo Sapien    
##  3 Abin Sur      good      Ungaran          
##  4 Abomination   bad       Human / Radiation
##  5 Abraxas       bad       Cosmic Entity    
##  6 Absorbing Man bad       Human            
##  7 Adam Monroe   good      <NA>             
##  8 Adam Strange  good      Human            
##  9 Agent 13      good      <NA>             
## 10 Agent Bob     good      Human            
## # ... with 724 more rows
```

## Not Human
4. List all of the superheros that are not human.

```r
superhero_info %>%
  filter(race!="Human")
```

```
## # A tibble: 222 x 10
##    name  gender eye_color race  hair_color height publisher skin_color alignment
##    <chr> <chr>  <chr>     <chr> <chr>       <dbl> <chr>     <chr>      <chr>    
##  1 Abe ~ Male   blue      Icth~ No Hair       191 Dark Hor~ blue       good     
##  2 Abin~ Male   blue      Unga~ No Hair       185 DC Comics red        good     
##  3 Abom~ Male   green     Huma~ No Hair       203 Marvel C~ <NA>       bad      
##  4 Abra~ Male   blue      Cosm~ Black          NA Marvel C~ <NA>       bad      
##  5 Ajax  Male   brown     Cybo~ Black         193 Marvel C~ <NA>       bad      
##  6 Alien Male   <NA>      Xeno~ No Hair       244 Dark Hor~ black      bad      
##  7 Amazo Male   red       Andr~ <NA>          257 DC Comics <NA>       bad      
##  8 Angel Male   <NA>      Vamp~ <NA>           NA Dark Hor~ <NA>       good     
##  9 Ange~ Female yellow    Muta~ Black         165 Marvel C~ <NA>       good     
## 10 Anti~ Male   yellow    God ~ No Hair        61 DC Comics <NA>       bad      
## # ... with 212 more rows, and 1 more variable: weight <dbl>
```

## Good and Evil
5. Let's make two different data frames, one focused on the "good guys" and another focused on the "bad guys".

```r
superhero_info %>%
  filter(alignment == "good")
```

```
## # A tibble: 496 x 10
##    name  gender eye_color race  hair_color height publisher skin_color alignment
##    <chr> <chr>  <chr>     <chr> <chr>       <dbl> <chr>     <chr>      <chr>    
##  1 A-Bo~ Male   yellow    Human No Hair       203 Marvel C~ <NA>       good     
##  2 Abe ~ Male   blue      Icth~ No Hair       191 Dark Hor~ blue       good     
##  3 Abin~ Male   blue      Unga~ No Hair       185 DC Comics red        good     
##  4 Adam~ Male   blue      <NA>  Blond          NA NBC - He~ <NA>       good     
##  5 Adam~ Male   blue      Human Blond         185 DC Comics <NA>       good     
##  6 Agen~ Female blue      <NA>  Blond         173 Marvel C~ <NA>       good     
##  7 Agen~ Male   brown     Human Brown         178 Marvel C~ <NA>       good     
##  8 Agen~ Male   <NA>      <NA>  <NA>          191 Marvel C~ <NA>       good     
##  9 Alan~ Male   blue      <NA>  Blond         180 DC Comics <NA>       good     
## 10 Alex~ Male   <NA>      <NA>  <NA>           NA NBC - He~ <NA>       good     
## # ... with 486 more rows, and 1 more variable: weight <dbl>
```

```r
superhero_info %>% 
  filter(alignment == "bad")
```

```
## # A tibble: 207 x 10
##    name  gender eye_color race  hair_color height publisher skin_color alignment
##    <chr> <chr>  <chr>     <chr> <chr>       <dbl> <chr>     <chr>      <chr>    
##  1 Abom~ Male   green     Huma~ No Hair       203 Marvel C~ <NA>       bad      
##  2 Abra~ Male   blue      Cosm~ Black          NA Marvel C~ <NA>       bad      
##  3 Abso~ Male   blue      Human No Hair       193 Marvel C~ <NA>       bad      
##  4 Air-~ Male   blue      <NA>  White         188 Marvel C~ <NA>       bad      
##  5 Ajax  Male   brown     Cybo~ Black         193 Marvel C~ <NA>       bad      
##  6 Alex~ Male   <NA>      Human <NA>           NA Wildstorm <NA>       bad      
##  7 Alien Male   <NA>      Xeno~ No Hair       244 Dark Hor~ black      bad      
##  8 Amazo Male   red       Andr~ <NA>          257 DC Comics <NA>       bad      
##  9 Ammo  Male   brown     Human Black         188 Marvel C~ <NA>       bad      
## 10 Ange~ Female <NA>      <NA>  <NA>           NA Image Co~ <NA>       bad      
## # ... with 197 more rows, and 1 more variable: weight <dbl>
```
…
10. Let's explore who the really "big" superheros are. In the `superhero_info` data, which have a height over 200 or weight over 300?

```r
superhero_info %>% 
  select(name, race, alignment, height, weight) %>% 
  filter(height >= 200|weight >= 300) %>% 
  arrange(height, weight)
```

```
## # A tibble: 65 x 5
##    name               race              alignment height weight
##    <chr>              <chr>             <chr>      <dbl>  <dbl>
##  1 Giganta            <NA>              bad         62.5    630
##  2 Machine Man        <NA>              good       183      383
##  3 Destroyer          <NA>              bad        188      383
##  4 Drax the Destroyer Human / Altered   good       193      306
##  5 Rhino              Human / Radiation bad        196      320
##  6 Living Brain       <NA>              bad        198      360
##  7 Sinestro           Korugaran         neutral    201       92
##  8 Century            Alien             good       201       97
##  9 Steel              <NA>              good       201      131
## 10 Doctor Doom II     <NA>              bad        201      132
## # ... with 55 more rows
```
…
We would not have 16 rows in question 10 due to the use of the "|" operator. In question 10 I created a code that presented all superheros within a particular criteria because it produces an "or table". For instance, "Giganta" is a superhero that appears in question #12, but not in question #11. However, "Giganta" is the first result in question #10 since she fits in one of the two categories. The "|" operator outputs those who meet at least one of the weight/height requirements.

## Height to Weight Ratio
13. It's easy to be strong when you are heavy and tall, but who is heavy and short? Which superheros have the highest height to weight ratio?

```r
superhero_info %>% 
  mutate(height_weight_ratio=height/weight) %>% 
  select(name, height_weight_ratio) %>% 
  arrange(desc(height_weight_ratio))
```

```
## # A tibble: 734 x 2
##    name            height_weight_ratio
##    <chr>                         <dbl>
##  1 Groot                        175.  
##  2 Galactus                      54.8 
##  3 Fin Fang Foom                 54.2 
##  4 Longshot                       5.22
##  5 Jack-Jack                      5.07
##  6 Rocket Raccoon                 4.88
##  7 Dash                           4.52
##  8 Howard the Duck                4.39
##  9 Swarm                          4.17
## 10 Yoda                           3.88
## # ... with 724 more rows
```
…
14. How many superheros have a combination of accelerated healing, durability, and super strength?

```r
superhero_powers %>% 
  select(hero_names, accelerated_healing, durability, super_strength) %>% 
  filter(accelerated_healing == "TRUE", durability == "TRUE", super_strength == "TRUE")
```

```
## # A tibble: 97 x 4
##    hero_names   accelerated_healing durability super_strength
##    <chr>        <lgl>               <lgl>      <lgl>         
##  1 A-Bomb       TRUE                TRUE       TRUE          
##  2 Abe Sapien   TRUE                TRUE       TRUE          
##  3 Angel        TRUE                TRUE       TRUE          
##  4 Anti-Monitor TRUE                TRUE       TRUE          
##  5 Anti-Venom   TRUE                TRUE       TRUE          
##  6 Aquaman      TRUE                TRUE       TRUE          
##  7 Arachne      TRUE                TRUE       TRUE          
##  8 Archangel    TRUE                TRUE       TRUE          
##  9 Ardina       TRUE                TRUE       TRUE          
## 10 Ares         TRUE                TRUE       TRUE          
## # ... with 87 more rows
```

## `kinesis`
15. We are only interested in the superheros that do some kind of "kinesis". How would we isolate them from the `superhero_powers` data?

```r
superhero_powers %>% 
  select(ends_with("kinesis"))
```

```
## # A tibble: 667 x 9
##    cryokinesis electrokinesis telekinesis hyperkinesis hypnokinesis
##    <lgl>       <lgl>          <lgl>       <lgl>        <lgl>       
##  1 FALSE       FALSE          FALSE       FALSE        FALSE       
##  2 FALSE       FALSE          FALSE       FALSE        FALSE       
##  3 FALSE       FALSE          FALSE       FALSE        FALSE       
##  4 FALSE       FALSE          FALSE       FALSE        FALSE       
##  5 FALSE       FALSE          FALSE       FALSE        FALSE       
##  6 FALSE       FALSE          FALSE       FALSE        FALSE       
##  7 FALSE       FALSE          FALSE       FALSE        FALSE       
##  8 FALSE       FALSE          FALSE       FALSE        FALSE       
##  9 FALSE       FALSE          FALSE       FALSE        FALSE       
## 10 FALSE       FALSE          FALSE       FALSE        FALSE       
## # ... with 657 more rows, and 4 more variables: thirstokinesis <lgl>,
## #   biokinesis <lgl>, terrakinesis <lgl>, vitakinesis <lgl>
```

This data demonstrates all of the possible superpowers that use some type of kinesis. Though it is not specific enough since it only shows the kinesis names, even though some superheros may not use any kind of kinesis. 


```r
kinesis <- superhero_powers %>% 
  select(ends_with("kinesis")) %>% 
  filter_all(any_vars(.=="TRUE"))
kinesis
```

```
## # A tibble: 112 x 9
##    cryokinesis electrokinesis telekinesis hyperkinesis hypnokinesis
##    <lgl>       <lgl>          <lgl>       <lgl>        <lgl>       
##  1 FALSE       FALSE          FALSE       FALSE        TRUE        
##  2 TRUE        FALSE          FALSE       FALSE        FALSE       
##  3 FALSE       FALSE          TRUE        FALSE        FALSE       
##  4 TRUE        FALSE          FALSE       FALSE        FALSE       
##  5 FALSE       FALSE          TRUE        FALSE        FALSE       
##  6 TRUE        FALSE          FALSE       FALSE        TRUE        
##  7 FALSE       FALSE          TRUE        FALSE        FALSE       
##  8 FALSE       FALSE          TRUE        FALSE        FALSE       
##  9 FALSE       TRUE           FALSE       FALSE        FALSE       
## 10 FALSE       FALSE          FALSE       FALSE        TRUE        
## # ... with 102 more rows, and 4 more variables: thirstokinesis <lgl>,
## #   biokinesis <lgl>, terrakinesis <lgl>, vitakinesis <lgl>
```
…
