…
In the amniota data set it appears that there are zero NA's. However, our earlier exploratory analysis reminds us that this is not true. This calculation would not make sense as clearly there is still missing data, though it is being represented by a numeric value instead of a character value. RStudio is unable to recognize these numeric NA's since they're classified as numbers as opposed to actual missing values. 


```r
amphibio %>% 
  purrr::map_df(~ sum(is.na(.))) %>% 
  pivot_longer(everything(),
    names_to= "variables",
    values_to = "num_nas") %>% 
  arrange(desc(num_nas))
```

```
## # A tibble: 38 x 2
##    variables num_nas
##    <chr>       <int>
##  1 OBS          6776
##  2 Fruits       6774
##  3 Flowers      6772
##  4 Seeds        6772
##  5 Leaves       6752
##  6 Dry_cold     6735
##  7 Vert         6657
##  8 Wet_cold     6625
##  9 Crepu        6608
## 10 Dry_warm     6572
## # ... with 28 more rows
```
…
```
## # A tibble: 1 x 1
##   amniota_v2_NA_tot
##               <int>
## 1            528200
```

**6. Use the package `naniar` to produce a summary, including percentages, of missing data in each column for the `amniota` data.**  

```r
naniar::miss_var_summary(amniota_v2)
```

```
## # A tibble: 36 x 3
##    variable                       n_miss pct_miss
##    <chr>                           <int>    <dbl>
##  1 subspecies                      21322    100  
##  2 female_body_mass_at_maturity_g  21318    100. 
##  3 female_svl_at_maturity_cm       21120     99.1
##  4 fledging_mass_g                 21111     99.0
##  5 male_svl_cm                     21040     98.7
##  6 no_sex_maturity_d               20860     97.8
##  7 egg_width_mm                    20727     97.2
##  8 egg_length_mm                   20702     97.1
##  9 weaning_weight_g                20258     95.0
## 10 female_svl_cm                   20242     94.9
## # ... with 26 more rows
```

**7. Use the package `naniar` to produce a summary, including percentages, of missing data in each column for the `amphibio` data.**

```r
naniar::miss_var_summary(amphibio)
```

```
## # A tibble: 38 x 3
##    variable n_miss pct_miss
##    <chr>     <int>    <dbl>
##  1 OBS        6776    100  
##  2 Fruits     6774    100. 
##  3 Flowers    6772     99.9
##  4 Seeds      6772     99.9
##  5 Leaves     6752     99.6
##  6 Dry_cold   6735     99.4
##  7 Vert       6657     98.2
##  8 Wet_cold   6625     97.8
##  9 Crepu      6608     97.5
## 10 Dry_warm   6572     97.0
## # ... with 28 more rows
```
…
